<?xml version="1.0" encoding="UTF-8" standalone="no"?>
<svg
   xmlns:dc="http://purl.org/dc/elements/1.1/"
   xmlns:cc="http://creativecommons.org/ns#"
   xmlns:rdf="http://www.w3.org/1999/02/22-rdf-syntax-ns#"
   xmlns:svg="http://www.w3.org/2000/svg"
   xmlns="http://www.w3.org/2000/svg"
   xmlns:sodipodi="http://sodipodi.sourceforge.net/DTD/sodipodi-0.dtd"
   xmlns:inkscape="http://www.inkscape.org/namespaces/inkscape"
   inkscape:export-ydpi="96"
   inkscape:export-xdpi="96"
   inkscape:export-filename="/home/ezekielsmith/Pictures/0tubelogo-icon-profile-dark.png"
   width="1028"
   height="1028"
   viewBox="0 0 32.639 32.639"
   version="1.1"
   id="svg8"
   sodipodi:docname="0tubelogo-icon-profile-light.svg"
   inkscape:version="1.0 (4035a4fb49, 2020-05-01)">
  <defs
     id="defs2">
    <rect
       id="rect1736"
       height="68.791664"
       width="142.875"
       y="114.86439"
       x="109.36111" />
  </defs>
  <sodipodi:namedview
     scale-x="0.12"
     units="px"
     fit-margin-bottom="0"
     fit-margin-right="0"
     fit-margin-left="0"
     fit-margin-top="0"
     inkscape:window-maximized="1"
     inkscape:window-y="0"
     inkscape:window-x="0"
     inkscape:window-height="1016"
     inkscape:window-width="1920"
     inkscape:snap-text-baseline="true"
     showgrid="true"
     inkscape:document-rotation="0"
     inkscape:current-layer="layer1"
     inkscape:document-units="mm"
     inkscape:cy="405.91937"
     inkscape:cx="-56.992184"
     inkscape:zoom="0.41180699"
     inkscape:pageshadow="2"
     inkscape:pageopacity="0.0"
     borderopacity="1.0"
     bordercolor="#666666"
     pagecolor="#ffffff"
     id="base">
    <inkscape:grid
       originy="-170.2153"
       originx="-149.93057"
       id="grid845"
       type="xygrid" />
  </sodipodi:namedview>
  <metadata
     id="metadata5">
    <rdf:RDF>
      <cc:Work
         rdf:about="">
        <dc:format>image/svg+xml</dc:format>
        <dc:type
           rdf:resource="http://purl.org/dc/dcmitype/StillImage" />
        <dc:title></dc:title>
      </cc:Work>
    </rdf:RDF>
  </metadata>
  <g
     transform="translate(-132.29167,-136.91303)"
     id="layer1"
     inkscape:groupmode="layer"
     inkscape:label="Layer 1">
    <rect
       y="136.80719"
       x="132.08"
       height="33.020004"
       width="33.02"
       id="rect979"
       style="opacity:1;fill:#f5f5f5;stroke:#000000;stroke-width:0.0635635;fill-opacity:1" />
    <text
       id="text835"
       y="132.29167"
       x="48.380955"
       style="font-size:10.5833px;line-height:1.25;font-family:'Liberation Mono';-inkscape-font-specification:'Liberation Mono';stroke-width:0.264583"
       xml:space="preserve"><tspan
         style="stroke-width:0.264583"
         y="132.29167"
         x="48.380955"
         id="tspan833"
         sodipodi:role="line" /></text>
    <text
       id="text839"
       y="107.34524"
       x="86.934525"
       style="font-size:10.5833px;line-height:1.25;font-family:'League Mono';-inkscape-font-specification:'League Mono';stroke-width:0.264583"
       xml:space="preserve"><tspan
         style="stroke-width:0.264583"
         y="107.34524"
         x="86.934525"
         id="tspan837"
         sodipodi:role="line" /></text>
    <text
       id="text849"
       y="169.33333"
       x="179.91667"
       style="font-size:35.2777px;line-height:1.25;font-family:'League Mono';-inkscape-font-specification:'League Mono';stroke-width:0.264583"
       xml:space="preserve"><tspan
         style="stroke-width:0.264583"
         y="169.33333"
         x="179.91667"
         id="tspan847"
         sodipodi:role="line" /></text>
    <text
       id="text879"
       y="169.33333"
       x="296.33334"
       style="font-size:35.2777px;line-height:1.25;font-family:'League Mono';-inkscape-font-specification:'League Mono';stroke-width:0.264583"
       xml:space="preserve"><tspan
         style="stroke-width:0.264583"
         y="169.33333"
         x="296.33334"
         id="tspan877"
         sodipodi:role="line" /></text>
    <text
       style="font-size:35.2778px;line-height:1.25;font-family:'League Mono';-inkscape-font-specification:'League Mono';white-space:pre;shape-inside:url(#rect1736);"
       id="text1734"
       xml:space="preserve" />
    <g
       transform="translate(-0.4374184,3.090345)"
       style="font-size:35.2777px;line-height:1.25;font-family:'League Mono';-inkscape-font-specification:'League Mono';opacity:1;mix-blend-mode:normal;fill:#ff0000;fill-opacity:1;stroke-width:0.264583"
       id="text1089-4-6-3"
       aria-label="0">
      <path
         id="path858-6"
         style="fill:#ff0000;fill-opacity:1;stroke-width:0.264583"
         d="m 148.16664,137.79499 h -3.52777 l -7.05554,8.81943 v 7.05554 l 7.05554,8.81942 h 3.52777 l 7.05554,-8.81942 v -7.05554 z m 3.52777,14.99302 -5.29166,6.59693 -5.29165,-6.59693 v -5.29165 l 5.29165,-6.63221 5.29166,6.63221 z" />
    </g>
    <g
       transform="translate(4.8542484,3.090345)"
       style="font-size:35.2777px;line-height:1.25;font-family:'League Mono';-inkscape-font-specification:'League Mono';opacity:0.4;mix-blend-mode:normal;fill:#ff0000;fill-opacity:1;stroke-width:0.264583"
       id="text1089-4-6-7"
       aria-label="0">
      <path
         id="path858-5"
         style="fill:#ff0000;fill-opacity:1;stroke-width:0.264583"
         d="m 148.16664,137.79499 h -3.52777 l -7.05554,8.81943 v 7.05554 l 7.05554,8.81942 h 3.52777 l 7.05554,-8.81942 v -7.05554 z m 3.52777,14.99302 -5.29166,6.59693 -5.29165,-6.59693 v -5.29165 l 5.29165,-6.63221 5.29166,6.63221 z" />
    </g>
  </g>
</svg>
